10 L10: GIS IV | 070184 UE Methodological course - Digital Humanities Skills: Intro to GIS (2021S), R Edition
…
First, let’s add these multipliers to our nodes:

nodesM <- nodes %>%
  left_join(types, by = c("top_type" = "type"))

nodesM

## # A tibble: 1,692 x 7
##    settlement_id       names_eng_transl… region_URI top_type     lon   lat  mltp
##    <chr>               <chr>             <chr>      <chr>      <dbl> <dbl> <dbl>
##  1 QAHIRA_312E300N_S   al-Qāhiraŧ        Misr_RE    metropol… 31.2    30.0  0.25
##  2 WASHQA_003W421N_S   Wašqaŧ            Andalus_RE towns     -0.354  42.2  0.5 
##  3 BALANSIYYA_004W394… Balansiyyaŧ       Andalus_RE towns     -0.415  39.4  0.5 
##  4 SHAQR_004W391N_S    al-Šaqr           Andalus_RE villages  -0.437  39.2  1   
##  5 QANT_004W383N_S     Qānt              Andalus_RE towns     -0.471  38.3  0.5 
##  6 SHATIBA_005W389N_S  Šātibaŧ           Andalus_RE towns     -0.523  39.0  0.5 
##  7 SARAQUSA_009W416N_S Saraqūsaŧ         Andalus_RE towns     -0.929  41.6  0.5 
##  8 MURSIYA_011W379N_S  Mursiyaŧ          Andalus_RE towns     -1.11   38.0  0.5 
##  9 TUTILA_016W420N_S   Tuṭīlaŧ           Andalus_RE towns     -1.63   42.0  0.5 
## 10 LURQA_017W376N_S    Lurqaŧ            Andalus_RE towns     -1.73   37.7  0.5 
## # … with 1,682 more rows
…
