11 L11: GIS V | 070184 UE Methodological course - Digital Humanities Skills: Intro to GIS (2021S), R Edition
…
# now let's add everything with left_join, and then format a pop-up message
iwSettlementsMOD <- iwSettlements %>%
  left_join(iwRegions, by = c("region_URI")) %>%
  left_join(types, by = c("top_type")) %>%
  mutate(popup = paste0("<b>", names_eng_translit, "</b> is one of ", top_type,
                        ". It is located in the province of ", region_name, " (", 
                        lon, ", ", lat, ").")) %>%
  filter(top_type %in% c("metropoles", "capitals", "towns", "villages", "waystations"))

iwSettlementsMOD

## # A tibble: 1,812 x 11
##    settlement_id names_eng_trans… region_URI top_type    lon   lat region_code
##    <chr>         <chr>            <chr>      <chr>     <dbl> <dbl> <chr>      
##  1 QAHIRA_312E3… al-Qāhiraŧ       Misr_RE    metropo… 31.2    30.0 Egypt      
##  2 IRBIL_440E36… Irbīl            Aqur_RE    towns    44.0    36.2 Aqur       
##  3 DANIYA_001E3… Dāniyaŧ          Andalus_RE towns     0.105  38.8 Andalus    
##  4 WASHQA_003W4… Wašqaŧ           Andalus_RE towns    -0.354  42.2 Andalus    
##  5 BALANSIYYA_0… Balansiyyaŧ      Andalus_RE towns    -0.415  39.4 Andalus    
##  6 SHAQR_004W39… al-Šaqr          Andalus_RE villages -0.437  39.2 Andalus    
##  7 QANT_004W383… Qānt             Andalus_RE towns    -0.471  38.3 Andalus    
##  8 SHATIBA_005W… Šātibaŧ          Andalus_RE towns    -0.523  39.0 Andalus    
##  9 SARAQUSA_009… Saraqūsaŧ        Andalus_RE towns    -0.929  41.6 Andalus    
## 10 QARTAJANNA_0… Qarṭāǧannaŧ      Andalus_RE villages -0.983  37.6 Andalus    
## # … with 1,802 more rows, and 4 more variables: region_color <chr>,
## #   region_name <chr>, size <dbl>, popup <chr>
…
